outliers con R - Blog InvestigaOnline.com
…
la robustez del análisis a ejecutar con distribución manejada: una regresión lineal simple puede variar significativamente con solo un valor atípico, mientras que las pruebas no paramétricas como la prueba de Wilcoxon suelen ser robustas a los valores atípicos.

nunca debemos perder sin embargo nuestro poder de decisión subjetivo, comprender el entorno y el proceso en el que el dato se ha obtenido; no somos máquinas, trabajamos para analizar.

Por último, en este post sólo se estudia el caso de outliers univariantes. Dejamos para posteriores post el análisis de situaciones en las que pueda serr necesario evaluar los outliers de tipo multivariante.

Análisis básico de descriptivos

Mínimo y máximo

Estas dos simples medidas ya nos pueden proporcionar una aproximación muy simple a como se distribuye la variable, y nuestro conocimiento del rango de la distribución en la población ya nos puede aportar información objetiva. Con R son muchas las formas de poder calcularlo, pero siguiendo nuestra costumbre de minimizar el número de paquetes a usar, podemos hacerlo con instrucciones básicas de R y usando el archivo mpg del paquete ggplot2 y particularmente el campo que refiere al gasto de combustible (hwy).

mpg

# A tibble: 234 x 11
   manufacturer model    displ  year   cyl trans   drv     cty   hwy fl    class
   <chr>        <chr>    <dbl> <int> <int> <chr>   <chr> <int> <int> <chr> <chr>
 1 audi         a4         1.8  1999     4 auto(l~ f        18    29 p     comp~
 2 audi         a4         1.8  1999     4 manual~ f        21    29 p     comp~
 3 audi         a4         2    2008     4 manual~ f        20    31 p     comp~
 4 audi         a4         2    2008     4 auto(a~ f        21    30 p     comp~
 5 audi         a4         2.8  1999     6 auto(l~ f        16    26 p     comp~
 6 audi         a4         2.8  1999     6 manual~ f        18    26 p     comp~
 7 audi         a4         3.1  2008     6 auto(a~ f        18    27 p     comp~
 8 audi         a4 quat~   1.8  1999     4 manual~ 4        18    26 p     comp~
 9 audi         a4 quat~   1.8  1999     4 auto(l~ 4        16    25 p     comp~
10 audi         a4 quat~   2    2008     4 manual~ 4        20    28 p     comp~
# ... with 224 more rows
…
